{
  "variables": {
    "version": "{{env `VERSION`}}"
  },
  "provisioners": [
    {
      "type": "shell",
      "execute_command": "sudo {{.Vars}} sh {{.Path}}",
      "scripts": [
        "scripts/chef.sh",
        "scripts/vagrant.sh",
        "scripts/vmtools.sh",
        "scripts/cleanup.sh",
        "scripts/zerodisk.sh"
      ]
    }
  ],
  "post-processors": [
    {
      "type": "vagrant",
      "output": "IAR-CentOS-6.6-x86_64-{{user `version`}}-{{.Provider}}.box"
    }
  ],
  "builders": [
    {
      "type": "virtualbox-iso",
      "iso_url": "http://mirror.cogentco.com/pub/linux/centos/6.6/isos/x86_64/CentOS-6.6-x86_64-netinstall.iso",
      "iso_checksum": "ad8f6de098503174c7609d172679fa0dd276f4b669708933d9c4927bd3fe1017",
      "iso_checksum_type": "sha256",
      "ssh_username": "vagrant",
      "ssh_password": "vagrant",
      "boot_command": [
        "<tab> text ks=http://{{ .HTTPIP }}:{{ .HTTPPort }}/ks.cfg<enter><wait>"
      ],
      "disk_size": "100000",
      "hard_drive_interface": "sata",
      "guest_additions_path": "VBoxGuestAdditions_{{.Version}}.iso",
      "guest_additions_sha256": "140b01869cd02558d101cba9ca04a761b42baabde36bb65d7f82aeed631234a9",
      "guest_os_type": "RedHat_64",
      "headless": "true",
      "http_directory": "http",
      "shutdown_command": "sudo /sbin/halt -p",
      "vboxmanage": [
        [ "modifyvm", "{{.Name}}", "--memory", "512" ],
        [ "modifyvm", "{{.Name}}", "--cpus", "1" ]
      ]
    },
    {
      "type": "vmware-iso",
      "iso_url": "http://mirror.cogentco.com/pub/linux/centos/6.6/isos/x86_64/CentOS-6.6-x86_64-netinstall.iso",
      "iso_checksum": "ad8f6de098503174c7609d172679fa0dd276f4b669708933d9c4927bd3fe1017",
      "iso_checksum_type": "sha256",
      "ssh_username": "vagrant",
      "ssh_password": "vagrant",
      "disk_size": "100000",
      "tools_upload_flavor": "linux",
      "guest_os_type": "centos-64",
      "headless": "true",
      "shutdown_command": "sudo /sbin/halt -p",
      "http_directory": "http",
      "boot_command": [
        "<tab> text ks=http://{{ .HTTPIP }}:{{ .HTTPPort }}/ks.cfg<enter><wait>"
      ],
      "vmx_data": {
        "memsize": "512",
        "numvcpus": "1",
        "vhv.enable": "TRUE"
      }
    }
  ]
}
